{
    "gut": [
        "Keine regionalen Wandbewegungsstörungen",
        "Unauffällige linksventrikuläre Pumpfunktion ohne Nachweis von Wandbewegungsstörungen",
        "Keine Beschwerden. In Ruhe Sinusrhythmus. Im Belastungs-EKG keine Endstreckenveränderungen",
        "Kein Nachweis von transmuralem Narbengewebe. Bei unauffälliger regionaler Wandbewegung liegt die globale, linksventrikuläre Pumpfunktion im Normbereich",
        "Sinusrhythmus mit AV-Block ersten Grades",
        "unauffällige Tracerbelegung im linksventrikulären Myokard",
        "Unter körperlicher Ausbelastung findet sich keine belastungsinduzierte Perfusionsstörung",
        "Kein Nachweis von Myokardnarben",
        "Im Belastungs-EKG keine neu aufgetretenen Endstreckenveränderungen",
        "Die linksventrikuläre Auswurffraktion in Ruhe beträgt  68 %, nach Belastung 67 %",
        "zeigen allenfalls eine diskrete belastungsinduzierte Minderperfusion basisnah inferoseptal",
        "Im Belastungs-EKG keine ischämietypischen Endstreckenveränderungen",
        "Ruhe- und Belastungsaufnahmen zeigen eine unauffällige Tracerbelegung",
        "Kein Nachweis von Narbengewebe im linksventrikulären Myokard",
        "diskrete Tracerminderbelegung der basisnahen VW",
        "Keine regionale Wandbewegungsstörung",
        "im Bereich der basisnahen VW lässt sich eine diskrete belastungsinduzierte Minderperfusion nachweisen",
        "konkordante Tracerminderbelegung spitzennah anteroseptal ist am ehesten ein Schwächungsartefakt",
        "Bei unauffälliger regionaler Wandbewegung ist die globale, linksventrikuläre Pumpfunktion in Ruhe und nach Belastung normal",
        "normal",
        "unauffällig",
        "unauffällige Tracerbelegung des linksventrikulären Myokards",
        "guter Wandbewegung im Bereich der Vorderwand",
        "gut",
        "Unter Adenosin-Belastung kein Hinweis auf belastungsinduzierte Perfusionsstörungen",
        "kein Nachweis von Narbengewebe im linksventrikulären Myokard",
        "basisnahen inferolateralen Kammerwand zeigt sich unter Belastung eine gering verminderte Tracerbelegung",
        "Die linksventrikuläre Auswurffraktion in Ruhe beträgt 64 %, nach Belastung 63 %.",
        "geringe Tracerminderbelegung basisnah inferolateral",
        "keine ischämietypischen Endstreckenveränderungen",
        "kleine umschriebene Minderbelegung in der apexnahen anteroseptalen Kammerwand",
        "kleine umschriebene Minderbelegung der apexnahen anteroseptalen Kammerwand",
        "Normbereich",
        "",
        "",
        "",
        "",
        "",
        "",
        "",
        "",
        "",
        "",
        "",
        "",
        "",
        "",
        "",
        "",
        "",
        "",
        "",
        "",
        "",
        "",
        "",
        "",
        "",
        "",
        "",
        "",
        "",
        "",
        "",
        ""
    ],
    "mittel": [
        "zeigen eine Minderbelegung in der mittleren und distalen inferioren Kammerwand",
        "kein sicherer Ausschluss einer relevanten KHK",
        "mäßiggradige belastungsinduzierte Perfusionsstörung in der mittleren und distalen inferioren Kammerwand",
        "Minderbelegung in den distalen zwei Dritteln der anterioren Kammerwand",
        "belastungsinduzierte Perfusionsstörung in den distalen zwei Dritteln der anterioren Kammerwand",
        "Im Belastungs-EKG ST-Senkungen in den Ableitungen II, III und aVF sowie V4 bis V6",
        "(Ableitungen II, III und aVF sowie V4 bis V6)",
        "konkordante Minderbelegung in den distalen zwei Dritteln anterolateral unter Einbezug der zugehörigen Herzspitzenanteile",
        "in Ruhe beträgt vor Belastung 50 %, nach Belastung 43 %",
        "Deutlich erhöhter (Agatston Score): 793",
        "Perfusionsminderung unter Belastung in den proximalen zwei Drittel der Hinterwand",
        "Vorderwand präterm. T-Negativierung",
        "geringe belastungsinduzierte Perfusionsstörung in den prox. 2/3 der Hinterwand",
        "fleckige Tracerbelegung des linksventrikulären Myokards",
        "Linksschenkelblock",
        "verminderte Tracerbelegung der Herzspitze",
        "umschrieben spitzennah inferolateral",
        "Ruhe beträgt vor Belastung 41 %, nach Belastung 43%",
        "Globale Wandbewegungsstörung des deutlich vergrößerten linken Ventrikels",
        "eine diskrete belastungsinduzierte Perfusionsstörung im Bereich der Herzspitze und des angrenzenden Anteils der inferolateralen Kammerwand",
        "dilatierten linken Ventrikels",
        "deutlich eingeschränkte linksventrikuläre Pumpfunktion",
        "Vereinzelte VES in der Erholungsphase",
        "Z.n. ACVB Operation (LIMA auf LAD, 2-fach ACVB auf R. diag. und LCX) 1999; Z.n. PTCA/Stenting der RCA prox., med. und Crux cordis 12/07, LAD und LCX verschlossen, R. intermedius 60%-ige Stenose",
        "Dilatation des linken Ventrikels",
        "in Ruhe beträgt 42 %",
        "Globale Hypokinesie",
        "Dilatative Kardiomyopathie mit eingeschränkter EF",
        "Dilatierter linker Ventrikel",
        "globale, linksventrikuläre Pumpfunktion in Ruhe und nach  Belastung erniedrigt",
        "Ruheuntersuchung zeigt eine moderate Tracerminderbelegung der anteroseptalen Kammerwand",
        "in Ruhe beträgt ca. 41%",
        "Ruheuntersuchung zeigt eine Tracerminderbelegung der nahezu gesamten inferolateralen Kammerwand",
        "zeigen eine konkordante diskrete Minderbelegung im Bereich der apikalen 2/3 der anteroseptalen Kammerwand",
        "Z.n. P/S LCx (03/06); VHF, Z.n. Kardioversion 07/08; CVRF: Arterielle Hypertonie, DM Typ II, Hypercholesterinämie, Adipositas",
        "Globale Dyskinesie lateral betont mit guter Wandbewegung im Bereich der Vorderwand",
        "Dilatative Kardiomyopathie",
        "Adipositas",
        "Luftnot bei Belastung",
        "Globale Wandbewegungsstörung",
        "linksventrikuläre Auswurffraktion in Ruhe beträgt 47 %",
        "Ischämische Kardiomyopathie, Z.n. HWI (multiple), Z.n. multiplen Gefäßinterventionen und SM-Implantation",
        "Eingeschränkte globale, linksventrikuläre Pumpfunktion in Ruhe",
        "vor Belastung 55 %, nach Belastung 48 %",
        "Pumpfunktion leicht erniedrigt",
        "ST-Strecken-Senkung im aVR, V5 und V6",
        "in Ruhe beträgt 69 %, nach Belastung 62 %",
        "Dilatative Kardiomyopathie",
        "Nach Belastung sinkt dies jedoch in den Grenzbereich ab.",
        "Zusätzlich fällt eine Größenzunahme des LV nach Belastung auf.",
        "T-Negativierung in V5 und V6",
        "Der linke Ventrikel erscheint in den Belastungsaufnahmen etwas stärker balloniert",
        "eine kleine belastungsinduzierte Ischämie nicht auszuschließen",
        "Deutlich erhöhter Kalk-Score (Agatston Score): > 631",
        "Deutlich erhöhter Coronar-Kalk-Score als Hinweis auf ein erhöhtes kardiales Risikoprofil",
        "mittelgradiger RCA-Stenose und mittel-höhergradiger Hauptstammstenose",
        "teils horizontale, teils aszendierende ST-Strecken Senkungen in V5 und V6 bis max. 0,2 mV in V6",
        "ST-Senkungen und T-Negativierungen in I und aVL waren in Ruhe und unter Belastung nahezu unverändert",
        "unvollständiger Rechtsschenkelblock, ST-Senkungen bis -0,1 mV und T-Negativierungen in I und aVL",
        "eine Minderbelegung in der gesamten inferolateralen Kammerwand (betont herzspitzennahe Anteile), der Herzspitze und der distalen Hälfte der anterioren/ anteroseptalen Kammerwand",
        "Dyskinesie in der anterioren und inferolateralen Kammerwand",
        "belastungsinduzierte Perfusionsstörungen in der inferolateralen Kammerwand, der spitzennahen Hälfte der anterioren/ anteroseptalen Kammerwand und der Herzspitze",
        "neg T-Wellen in II, III, aVF, V4-V6",
        "ST-Streckensenkungen in II, III und aVF und in V4-V6 um ca. 0,2mV",
        "Rückbildung der ST-Streckenveränderungen nach ca. 4 Minuten"
    ],
    "schlecht": [
        "Nach der Belastung schilderte der Pat. einen linksthorakalen Druck über mehrere Minuten",
        "Ruhe EKG nach Belastung zeigten sich intermittierend supraventrikuläre Extrasystolen",
        "zeigen sich ST-Senkungen",
        "erhöhtes Infarktrisiko",
        "regionalen Wandbewegungsstörung in den distalen zwei Dritteln anterolateral",
        "konkordanten Perfusionsminderung in den distalen zwei Dritteln anterolateral unter Einbezug der zugehörigen Herzspitzenanteile",
        "",
        "regionalen Wandbewegungsstörung in den distalen zwei Dritteln anterolateral inklusive Herzspitze",
        "linksventrikuläre Auswurffraktion in Ruhe beträgt  21 %, nach Belastung 28 %",
        "Akinesie des Septums bei ausgeprägte Hypokinesie der restlichen Kammerwände",
        "Akinesie des Septums und ausgeprägter Hypokinesie",
        "Akinesie des Septums und ausgeprägter Hypokinesie",
        "konkordante Minderbelegung der basisnahen 2/3 der Lateralwand",
        "inferolateralen Kammerwand sowie der angrenzenden HW",
        "Ein Hinweis auf nicht-transmurales Narbengewebe ergibt sich im Bereich basisnahen 2/3 der Lateralwand, der basisnahen 2/3 inferolateralen Kammerwand sowie der angrenzenden HW",
        "konkordante Perfusionsminderung in der inferioren, inferolateralen und lateralen Kammerwand",
        "Hypokinesie der inferioren, inferolateralen und lateralen Kammerwand",
        "Myokardnarbe in der inferioren, inferolateralen und lateralen Kammerwand mit Hypokinesie in diesem Bereich",
        "Die Ruheuntersuchung zeigt eine Ruheperfusionsminderung im Bereich der anteroseptalen Kammerwand",
        "Ruheperfusionsstörung im Bereich der nahezu gesamten inferolateralen Kammerwand (Infarktnarbe)",
        "zeigen einen konkordanten Speicherdefekt",
        "gesamte Hinterwand, sowie inferolaterale Kammerwand inkl. Herzspitze betrifft",
        "nach Belastung 43 %",
        "Hypokinesie",
        "transmuralen Myokardnarbe im Bereich der gesamten Hinterwand",
        "inferolaterale Kammerwand inkl. Herzspitze",
        "Belastungsaufnahmen zeigen eine moderate bis deutliche Tracerminderbelegung im Bereich der Herzspitze sowie  der gesamten anteroseptalen, septalen und angrenzenden inferoseptalen Kammerwand",
        "moderate bis deutliche belastungsinduzierte Perfusionsstörung",
        "Perfusionsdefekt",
        "ausgeprägten Perfusionsdefekt im Sinne einer Myokardnarbe im Bereich der inferioren sowie der angrenzenden infero-lateralen Kammerwand",
        "",
        "",
        "",
        "",
        "",
        "",
        "",
        "",
        "",
        "",
        "",
        "",
        "",
        "",
        "",
        "",
        "",
        "",
        "",
        "",
        "",
        "",
        "",
        "",
        "",
        "",
        "",
        "",
        "",
        "",
        "",
        "",
        "",
        "",
        ""
    ]
}