{
  "unify": [
    {
      "stem": "ein",
      "suffix": ["e", "es", "em", "en", "er"],
      "allowStemOnly": true
    }, {
      "stem": "isch",
      "suffix": ["e", "en", "es", "em", "er"]
    }, {
      "stem": "ung",
      "suffix": ["e", "en", "es", "em", "er"]
    }, {
      "stem": "aer",
      "suffix": ["e", "en", "es", "em", "er"]
    }, {
      "stem": "al",
      "suffix": ["e", "en", "es", "em", "er"]
    }, {
      "stem": "ior",
      "suffix": ["e", "en", "es", "em", "er"]
    }, {
      "stem": "llig",
      "suffix": ["e", "en", "es", "em", "er"]
    }, {
      "stem": "ant",
      "suffix": ["e", "en", "es", "em", "er"]
    }, {
      "stem": "lich",
      "suffix": ["e", "en", "es", "em", "er"]
    }, {
      "stem": "ert",
      "suffix": ["e", "en", "es", "em", "er"]
    }, {
      "stem": "ret",
      "suffix": ["e", "en", "es", "em", "er"]
    }, {
      "stem": "ent",
      "suffix": ["e", "en", "es", "em", "er"]
    }, {
      "stem": "nah",
      "suffix": ["e", "es", "er", "em", "en"],
      "allowStemOnly": true
    }, {
      "stem": "dies",
      "suffix": ["e", "es", "er", "em", "en"],
      "allowStemOnly": true
    }
  ],
  "clear": [
    "der", "das", "die", "in", "am", "an", "von",
    "des", "dem", "den", "bei", "im", "zeigen", "zeige", "zeigt"
  ],
  "test": [
    "ein", "mit", "dies"
  ]
}
