{
    "word": "",
    "count": 0,
    "childs": [
        {
            "word": "Kein Nachweis von",
            "count": 3,
            "childs": [
                {
                    "word": "Narbengewebe im linksventrikulären Myokard",
                    "count": 1
                },
                {
                    "word": "transmuralem Narbengewebe",
                    "count": 1
                },
                {
                    "word": "Myokardnarben",
                    "count": 1
                }
            ]
        },
        {
            "word": "Im Belastungs EKG keine",
            "count": 3,
            "childs": [
                {
                    "word": "ischämietypischen Endstreckenveränderungen",
                    "count": 1
                },
                {
                    "word": "neu aufgetretenen Endstreckenveränderungen",
                    "count": 1
                },
                {
                    "word": "Endstreckenveränderungen",
                    "count": 1
                }
            ]
        },
        {
            "word": "Keine",
            "count": 3,
            "childs": [
                {
                    "word": "regionale Wandbewegungsstörung",
                    "count": 1
                },
                {
                    "word": "regionalen Wandbewegungsstörungen",
                    "count": 1
                },
                {
                    "word": "Beschwerden",
                    "count": 1
                }
            ]
        },
        {
            "word": "kleine umschriebene Minderbelegung",
            "count": 2,
            "childs": [
                {
                    "word": "der apexnahen anteroseptalen Kammerwand",
                    "count": 1
                },
                {
                    "word": "in der apexnahen anteroseptalen Kammerwand",
                    "count": 1
                }
            ]
        },
        {
            "word": "Die linksventrikuläre Auswurffraktion in Ruhe beträgt % nach Belastung %",
            "count": 2
        },
        {
            "word": "unauffällige Tracerbelegung",
            "count": 2,
            "childs": [
                {
                    "word": "des linksventrikulären Myokards",
                    "count": 1
                },
                {
                    "word": "im linksventrikulären Myokard",
                    "count": 1
                }
            ]
        },
        {
            "word": "Bei unauffälliger regionaler Wandbewegung",
            "count": 2,
            "childs": [
                {
                    "word": "ist die globale linksventrikuläre Pumpfunktion in Ruhe und nach Belastung normal",
                    "count": 1
                },
                {
                    "word": "liegt die globale linksventrikuläre Pumpfunktion im Normbereich",
                    "count": 1
                }
            ]
        },
        {
            "word": "Unter",
            "count": 2,
            "childs": [
                {
                    "word": "Adenosin Belastung kein Hinweis auf belastungsinduzierte Perfusionsstörungen",
                    "count": 1
                },
                {
                    "word": "körperlicher Ausbelastung findet sich keine belastungsinduzierte Perfusionsstörung",
                    "count": 1
                }
            ]
        },
        {
            "word": "keine ischämietypischen Endstreckenveränderungen",
            "count": 1
        },
        {
            "word": "geringe Tracerminderbelegung basisnah inferolateral",
            "count": 1
        },
        {
            "word": "basisnahen inferolateralen Kammerwand zeigt sich unter Belastung eine gering verminderte Tracerbelegung",
            "count": 1
        },
        {
            "word": "kein Nachweis von Narbengewebe im linksventrikulären Myokard",
            "count": 1
        },
        {
            "word": "guter Wandbewegung im Bereich der Vorderwand",
            "count": 1
        },
        {
            "word": "konkordante Tracerminderbelegung spitzennah anteroseptal ist am ehesten ein Schwächungsartefakt",
            "count": 1
        },
        {
            "word": "im Bereich der basisnahen VW lässt sich eine diskrete belastungsinduzierte Minderperfusion nachweisen",
            "count": 1
        },
        {
            "word": "diskrete Tracerminderbelegung der basisnahen VW",
            "count": 1
        },
        {
            "word": "Ruhe und Belastungsaufnahmen zeigen eine unauffällige Tracerbelegung",
            "count": 1
        },
        {
            "word": "zeigen allenfalls eine diskrete belastungsinduzierte Minderperfusion basisnah inferoseptal",
            "count": 1
        },
        {
            "word": "Sinusrhythmus mit AV Block ersten Grades",
            "count": 1
        },
        {
            "word": "In Ruhe Sinusrhythmus",
            "count": 1
        },
        {
            "word": "Unauffällige linksventrikuläre Pumpfunktion ohne Nachweis von Wandbewegungsstörungen",
            "count": 1
        },
        {
            "word": "Normbereich",
            "count": 1
        },
        {
            "word": "gut",
            "count": 1
        },
        {
            "word": "unauffällig",
            "count": 1
        },
        {
            "word": "normal",
            "count": 1
        }
    ]
}