Segmente,"%5C((?:ca.)?%5Cs*(%5Cd%5Cd?)-?(%5Cd%5Cd?)?%5Cs*(?:%5C/%5Cs*17%5Cs*)?Segmente?n?(?:%5Cs*%5C/%5Cs*17)?(?:;%5B%5E%5C)%5D*)?%5C)%7Cin%20(%5Cd%5Cd?)%20von%2017%20Segmenten?%7C%5C(je%20(%5Cd%5Cd?)%20Segmente?n?%5C)%0A",custom,"(%7B0%7D%20+%20%7B1%7D)/2%0A%20%7C%7C%20%7B0%7D%0A%20%7C%7C%20%7B2%7D%0A%20%7C%7C%20%7B3%7D*2%0A",sum,"agg%20+%20e","0",custom,"value%20/%2017",1,2
Kalk Score,"(?:Kalk-Score%5Cs*(?:%5C(Agatston%20Score%5C))?%7C(?:Kalk-Score)?%5Cs*%5C(Agatston%20Score%5C)):?%5Cs*(?:%3E%5Cs*)?(?:von%5Cs*)?(%5Cd+,?%5Cd?);?%7C(%5Cd+,?%5Cd?)%20%5C(Agatston%20Score%5C)%0A",custom,"%7B%0A%20%20let%20x%20=%20%7B0%7D%20%7C%7C%20%7B1%7D%20%7C%7C%200;%0A%20%20if%20(typeof%20x%20===%20%22string%22)%0A%20%20%20%20x%20=%20parseFloat(x.replace(%22,%22,%20%22.%22));%0A%20%20x;%0A%7D",avg,"agg%20+%20(e%20/%20elems.length)","0",custom,"value%20/%204000",1,0
Auswurffraktion,"(?:Auswurffraktion%7CLVEF).*?(?:(?:(%5Cd+)%5Cs*%25%5Cs+)?(nach%7Cunter%7Cvor)%5Cs+Belastung%5Cs+(?:betr%C3%A4gt%7Cist)?%5Cs*(?:(?:ca%5C.%5Cs*)?(?:mehr%5Cs+als%7C%3E)?%5Cs*(%5Cd+)%5Cs*%25)?%5Cs*%5C(?(?:%5Cs*%5B,;%5D?%5Cs*(?:sowie%7Cund)?%5Cs*(?:(%5Cd+)%5Cs*%25%5Cs+)?in%5Cs+Ruhe(?:%5Cs+(?:ca%5C.%5Cs*)?(?:mehr%5Cs+als%7C%3E)?%5Cs*(%5Cd+)%5Cs*%25)?)?%5C)?%7C(?:(%5Cd+)%5Cs*%25%5Cs+)?in%5Cs+Ruhe%5Cs*(?:%5C(?(nach%7Cund%7Cund%5Cs+nach)%5Cs+Belastung%5C)?)?%5Cs*(?:betr%C3%A4gt%7Cist)?%5Cs*(?:(vor%7Cnach%7Cunter)%5Cs+Belastung%5Cs+)?(?:(?:ca%5C.%5Cs*)?(?:mehr%5Cs+als%7C%3E)?%5Cs*(%5Cd*)%5Cs*%5C(?(%5Cd*)?%5C)?%5Cs*%25)?%5Cs*%5C(?(?:%5Cs*%5B,;%5D?%5Cs*(?:sowie%7Cund)?%5Cs*(?:(%5Cd+)%5Cs*%25%5Cs+)?(?:(?:nach%7Cunter%7Cvor)%5Cs+Belastung%7Cin%5Cs+Ruhe(?:%5Cs+nach%5Cs+Belastung)?)%5Cs*(?:betr%C3%A4gt%7Cist)?(?:%5Cs*(?:mehr%5Cs+als%7C%3E)?%5Cs*(%5Cd+)%5Cs*%25)?)?%5C)?)",custom,"(()%20=%3E%20%7B%0A%20%20if%20(%7B1%7D%20!=%20null)%20%7B%0A%20%20%20%20return%20%7B1%7D%20==%20%22vor%22%20%0A%20%20%20%20%20%20?%20%5B%7B0%7D%20%7C%7C%20%7B2%7D,%20null%5D%20:%20%5B%7B3%7D%20%7C%7C%20%7B4%7D%20%7C%7C%20%7B0%7D%20%7C%7C%20%7B2%7D,%20%7B0%7D%20%7C%7C%20%7B2%7D%20%7C%7C%20%7B3%7D%20%7C%7C%20%7B4%7D%5D;%0A%20%20%7D%20else%20if%20(%7B6%7D%20!=%20null)%20%7B%0A%20%20%20%20return%20%7B9%7D%20!=%20null%0A%20%20%20%20%20%20?%20%5B%7B5%7D%20%7C%7C%20%7B8%7D,%20%7B9%7D%5D%20%0A%20%20%20%20%20%20:%20%7B6%7D%20==%20%22nach%22%20%0A%20%20%20%20%20%20%20%20?%20%5Bnull,%20%7B5%7D%20%7C%7C%20%7B8%7D%5D%0A%20%20%20%20%20%20%20%20:%20%5B%7B5%7D%20%7C%7C%20%7B8%7D,%20%7B5%7D%20%7C%7C%20%7B8%7D%5D;%0A%20%20%7D%20else%20if%20(%7B7%7D%20==%20null%20%7C%7C%20%7B7%7D%20==%20%22vor%22)%20%7B%0A%20%20%20%20return%20%5B%7B5%7D%20%7C%7C%20%7B8%7D%20%7C%7C%20%7B10%7D%20%7C%7C%20%7B11%7D,%20%7B10%7D%20%7C%7C%20%7B11%7D%20%7C%7C%20%7B5%7D%20%7C%7C%20%7B8%7D%5D%0A%20%20%7D%20else%20if%20(%7B5%7D%20%7C%7C%20%7B8%7D%20%7C%7C%20%7B10%7D%20%7C%7C%20%7B11%7D)%20%7B%0A%20%20%20%20return%20%5B%7B10%7D%20%7C%7C%20%7B11%7D%20%7C%7C%20%7B5%7D%20%7C%7C%20%7B8%7D,%20%7B5%7D%20%7C%7C%20%7B8%7D%20%7C%7C%20%7B10%7D%20%7C%7C%20%7B11%7D%5D;%0A%20%20%7D%20else%20%7B%0A%20%20%20%20return%20%5Bnull,%20null%5D;%0A%20%20%7D%0A%7D)()",custom,"(()%20=%3E%20%7B%0A%20if%20(agg%20==%20null)%20agg%20=%20%7B%7D;%0A%20if%20(e%5B0%5D%20!=%20null)%20agg.rest%20=%20e%5B0%5D;%0A%20if%20(e%5B1%5D%20!=%20null)%20agg.stress%20=%20e%5B1%5D;%0A%20return%20agg;%0A%7D)()","null",custom,"(value.rest%20-%20value.stress)%20/%20100",2,0
Volumina,"(?:end)?diastolisches?n?%20Volum(?:en%7Cina).*?(?:von%5Cs+(%5Cd+)%5Cs*ml%5Cs+(?:in%5Cs+Ruhe%5Cs+)?(?:auf%7Cund)%5Cs+(%5Cd+)%5Cs*ml%7C(%5Cd+)%5Cs*ml%5Cs+(?:nach%7Cunter%7Cbei)%5Cs+Belastung%5B,;%5D?%5Cs+(?:und%5Cs+)?(?:(%5Cd+)%5Cs*ml%5Cs+)?in%5Cs+Ruhe(?:%5Cs+(%5Cd+)%5Cs*ml)?%7C(%5Cd+)%5Cs*ml%5Cs+in%5Cs+Ruhe%5B,;%5D?%5Cs+(?:und%5Cs+)?(?:(%5Cd+)%5Cs*ml%5Cs+)?(?:bei%7Cnach%7Cunter)%5Cs+Belastung(?:%5Cs+(%5Cd+)%5Cs*ml)?%7C(?:nach%7Cunter%7Cbei)%5Cs+Belastung%5Cs+(%5Cd+)%5Cs*ml%5B,;%5D?%5Cs+(?:und%5Cs+)?(?:(%5Cd+)%5Cs*ml%5Cs+)?in%5Cs+Ruhe(?:%5Cs+(%5Cd+)%5Cs*ml)?%7Cin%5Cs+Ruhe%5Cs+(%5Cd+)%5Cs*ml%5B,;%5D?%5Cs+(?:und%5Cs+)?(?:(%5Cd+)%5Cs*ml%5Cs+)?(?:bei%7Cnach%7Cunter)%5Cs+Belastung(?:%5Cs+(%5Cd+)%5Cs*ml)?)",custom,"%7B0%7D%20!=%20null%0A%20%20?%20%5B%7B0%7D,%20%7B1%7D%5D%0A%20%20:%20%7B2%7D%20!=%20null%0A%20%20?%20%5B%7B3%7D%20%7C%7C%20%7B4%7D,%20%7B2%7D%5D%0A%20%20:%20%7B5%7D%20!=%20null%0A%20%20?%20%5B%7B5%7D,%20%7B6%7D%20%7C%7C%20%7B7%7D%5D%0A%20%20:%20%7B8%7D%20!=%20null%0A%20%20?%20%5B%7B9%7D%20%7C%7C%20%7B10%7D,%20%7B8%7D%5D%0A%20%20:%20%5B%7B11%7D,%20%7B12%7D%20%7C%7C%20%7B13%7D%5D",custom,"(%7Brest:%20e%5B0%5D,%20stress:%20e%5B1%5D%7D)","null",custom,"(value.rest%20-%20value.stress)%20/%20100",1,2;0